<svg
  version="1.1"
  xmlns="http://www.w3.org/2000/svg"
  baseProfile="full"
  width="160" height="300"
>
  <polygon points="154.523278297888 109.0909090909091, 80 300, 80 109.0909090909091" fill="#eee"/>
  <polygon points="5.476721702112016 109.0909090909091, 80 300, 80 109.0909090909091" fill="#5cc89a"/>
  <circle cx="80" cy="80" r="80" fill="#5cc89a" />
  <circle cx="80" cy="80" r="40" fill="#eee" />
</svg>
